<deployment-project plugin="plugin.ezdeploy" plugin-version="1.0">
  <configuration build-checksum="4045600129" file="D:\Projects\DefectDetection\EdgeTechDD.prj" location="D:\Projects\DefectDetection" name="EdgeTechDD" preferred-package-location="D:\Projects\DefectDetection\EdgeTechDD\for_redistribution" preferred-package-type="package.type.exe" target="target.ezdeploy.standalone" target-name="Application Compiler">
    <param.appname>EdgeTechDD</param.appname>
    <param.icon />
    <param.icons />
    <param.version>0.9</param.version>
    <param.authnamewatermark />
    <param.email />
    <param.company>Unilux, Inc.</param.company>
    <param.summary>Build 2019-04-12 v0.9</param.summary>
    <param.description />
    <param.screenshot />
    <param.guid />
    <param.installpath.string>\Unilux, Inc.\EdgeTechDD\</param.installpath.string>
    <param.installpath.combo>option.installpath.programfiles</param.installpath.combo>
    <param.logo />
    <param.install.notes />
    <param.target.install.notes />
    <param.intermediate>${PROJECT_ROOT}\EdgeTechDD\for_testing</param.intermediate>
    <param.files.only>${PROJECT_ROOT}\EdgeTechDD\for_redistribution_files_only</param.files.only>
    <param.output>${PROJECT_ROOT}\EdgeTechDD\for_redistribution</param.output>
    <param.logdir>${PROJECT_ROOT}\EdgeTechDD</param.logdir>
    <param.enable.clean.build>false</param.enable.clean.build>
    <param.user.defined.mcr.options />
    <param.target.type>subtarget.standalone</param.target.type>
    <param.support.packages />
    <param.web.mcr>true</param.web.mcr>
    <param.package.mcr>false</param.package.mcr>
    <param.no.mcr>false</param.no.mcr>
    <param.web.mcr.name>MyAppInstaller_web</param.web.mcr.name>
    <param.package.mcr.name>MyAppInstaller_mcr</param.package.mcr.name>
    <param.no.mcr.name>MyAppInstaller_app</param.no.mcr.name>
    <param.windows.command.prompt>true</param.windows.command.prompt>
    <param.create.log>false</param.create.log>
    <param.log.file />
    <unset>
      <param.icon />
      <param.icons />
      <param.description />
      <param.screenshot />
      <param.guid />
      <param.installpath.string />
      <param.installpath.combo />
      <param.logo />
      <param.target.install.notes />
      <param.intermediate />
      <param.files.only />
      <param.output />
      <param.logdir />
      <param.enable.clean.build />
      <param.user.defined.mcr.options />
      <param.target.type />
      <param.support.packages />
      <param.web.mcr />
      <param.package.mcr />
      <param.no.mcr />
      <param.web.mcr.name />
      <param.package.mcr.name />
      <param.no.mcr.name />
      <param.windows.command.prompt />
      <param.create.log />
      <param.log.file />
    </unset>
    <fileset.main>
      <file>${PROJECT_ROOT}\EdgeTechDD.m</file>
    </fileset.main>
    <fileset.resources />
    <fileset.package />
    <fileset.depfun>
      <file>${PROJECT_ROOT}\adaptBlocks.m</file>
      <file>${PROJECT_ROOT}\AdaptMethod.m</file>
      <file>${PROJECT_ROOT}\adaptt.m</file>
      <file>${PROJECT_ROOT}\alignStripHorz.m</file>
      <file>${PROJECT_ROOT}\binAreaAnalysis.m</file>
      <file>${PROJECT_ROOT}\DefectConstants.m</file>
      <file>${PROJECT_ROOT}\defectPointToRange.m</file>
      <file>${PROJECT_ROOT}\displayFinalDefects.m</file>
      <file>${PROJECT_ROOT}\EdgeTechDDProcessFolder.m</file>
      <file>${PROJECT_ROOT}\fillHoles.m</file>
      <file>${PROJECT_ROOT}\findBelowAvgDef.m</file>
      <file>${PROJECT_ROOT}\findBurr.m</file>
      <file>${PROJECT_ROOT}\findDefects.m</file>
      <file>${PROJECT_ROOT}\findInd.m</file>
      <file>${PROJECT_ROOT}\imageAnalysis.m</file>
      <file>${PROJECT_ROOT}\imageInfo.m</file>
      <file>${PROJECT_ROOT}\indImgInfo.m</file>
      <file>${PROJECT_ROOT}\ini2struct.m</file>
      <file>${PROJECT_ROOT}\KCrackMainFunction.m</file>
      <file>${PROJECT_ROOT}\logMsg.m</file>
      <file>${PROJECT_ROOT}\logMsgInitDir.m</file>
      <file>${PROJECT_ROOT}\logStatus.m</file>
      <file>${PROJECT_ROOT}\logStatusInit.m</file>
      <file>${PROJECT_ROOT}\ProgramConstants.m</file>
      <file>${PROJECT_ROOT}\UnevenEdge.m</file>
    </fileset.depfun>
    <build-deliverables>
      <file location="${PROJECT_ROOT}\EdgeTechDD\for_testing" name="readme.txt" optional="true">D:\Projects\DefectDetection\EdgeTechDD\for_testing\readme.txt</file>
      <file location="${PROJECT_ROOT}\EdgeTechDD\for_testing" name="EdgeTechDD.exe" optional="false">D:\Projects\DefectDetection\EdgeTechDD\for_testing\EdgeTechDD.exe</file>
      <file location="${PROJECT_ROOT}\EdgeTechDD\for_testing" name="splash.png" optional="false">D:\Projects\DefectDetection\EdgeTechDD\for_testing\splash.png</file>
    </build-deliverables>
    <workflow />
    <matlab>
      <root>C:\Program Files\MATLAB\R2017a</root>
      <toolboxes />
    </matlab>
    <platform>
      <unix>false</unix>
      <mac>false</mac>
      <windows>true</windows>
      <win2k>false</win2k>
      <winxp>false</winxp>
      <vista>false</vista>
      <linux>false</linux>
      <solaris>false</solaris>
      <osver>6.1</osver>
      <os32>false</os32>
      <os64>true</os64>
      <arch>win64</arch>
      <matlab>true</matlab>
    </platform>
  </configuration>
</deployment-project>