<deployment-project plugin="plugin.ezdeploy" plugin-version="1.0">
  <configuration file="D:\Projects\DefectDetection\libEdgeTechDD.prj" location="D:\Projects\DefectDetection" name="libEdgeTechDD" target="target.ezdeploy.library" target-name="Library Compiler">
    <param.appname>libEdgeTechDD</param.appname>
    <param.icon />
    <param.icons />
    <param.version>1.0</param.version>
    <param.authnamewatermark>Varu Ganga</param.authnamewatermark>
    <param.email>vganga@unilux.com</param.email>
    <param.company>Unilux Inc</param.company>
    <param.summary />
    <param.description />
    <param.screenshot />
    <param.guid />
    <param.installpath.string>\Unilux Inc\libEdgeTechDD\</param.installpath.string>
    <param.installpath.combo>option.installpath.programfiles</param.installpath.combo>
    <param.logo />
    <param.install.notes />
    <param.target.install.notes />
    <param.intermediate>${PROJECT_ROOT}\libEdgeTechDD\for_testing</param.intermediate>
    <param.files.only>${PROJECT_ROOT}\libEdgeTechDD\for_redistribution_files_only</param.files.only>
    <param.output>${PROJECT_ROOT}\libEdgeTechDD\for_redistribution</param.output>
    <param.logdir>${PROJECT_ROOT}\libEdgeTechDD</param.logdir>
    <param.enable.clean.build>false</param.enable.clean.build>
    <param.user.defined.mcr.options />
    <param.target.type>subtarget.library.c</param.target.type>
    <param.support.packages />
    <param.namespace />
    <param.classorg />
    <param.web.mcr>true</param.web.mcr>
    <param.package.mcr>false</param.package.mcr>
    <param.no.mcr>false</param.no.mcr>
    <param.web.mcr.name>MyAppInstaller_web</param.web.mcr.name>
    <param.package.mcr.name>MyAppInstaller_mcr</param.package.mcr.name>
    <param.no.mcr.name>MyAppInstaller_app</param.no.mcr.name>
    <param.windows.command.prompt>true</param.windows.command.prompt>
    <param.create.log>false</param.create.log>
    <param.log.file />
    <param.user.only.registration>false</param.user.only.registration>
    <param.assembly.type>false</param.assembly.type>
    <param.encryption.key.file />
    <param.net.enable.remoting>false</param.net.enable.remoting>
    <param.net.tsa.enable>false</param.net.tsa.enable>
    <param.net.tsa.assembly />
    <param.net.tsa.interface />
    <param.net.tsa.namespace />
    <param.net.tsa.superclass>Class1</param.net.tsa.superclass>
    <param.net.tsa.metadata />
    <param.net.tsa.metadata.assembly>C:\Users\vganga\Documents\MATLAB</param.net.tsa.metadata.assembly>
    <param.net.saved.interface />
    <unset>
      <param.icon />
      <param.icons />
      <param.version />
      <param.authnamewatermark />
      <param.email />
      <param.summary />
      <param.description />
      <param.screenshot />
      <param.guid />
      <param.installpath.string />
      <param.installpath.combo />
      <param.logo />
      <param.target.install.notes />
      <param.intermediate />
      <param.files.only />
      <param.output />
      <param.logdir />
      <param.enable.clean.build />
      <param.user.defined.mcr.options />
      <param.target.type />
      <param.support.packages />
      <param.namespace />
      <param.classorg />
      <param.web.mcr />
      <param.package.mcr />
      <param.no.mcr />
      <param.web.mcr.name />
      <param.package.mcr.name />
      <param.no.mcr.name />
      <param.windows.command.prompt />
      <param.create.log />
      <param.log.file />
      <param.user.only.registration />
      <param.assembly.type />
      <param.encryption.key.file />
      <param.net.enable.remoting />
      <param.net.tsa.enable />
      <param.net.tsa.assembly />
      <param.net.tsa.interface />
      <param.net.tsa.namespace />
      <param.net.tsa.superclass />
      <param.net.tsa.metadata />
      <param.net.tsa.metadata.assembly />
      <param.net.saved.interface />
    </unset>
    <fileset.exports>
      <file>${PROJECT_ROOT}\EdgeTechDD.m</file>
    </fileset.exports>
    <fileset.classes>
      <entity.package name="">
        <entity.class name="Class1">
          <file>${PROJECT_ROOT}\EdgeTechDD.m</file>
        </entity.class>
      </entity.package>
    </fileset.classes>
    <fileset.resources />
    <fileset.depfun>
      <file>${PROJECT_ROOT}\adaptBlocks.m</file>
      <file>${PROJECT_ROOT}\AdaptMethod.m</file>
      <file>${PROJECT_ROOT}\adaptt.m</file>
      <file>${PROJECT_ROOT}\alignStripHorz.m</file>
      <file>${PROJECT_ROOT}\binAreaAnalysis.m</file>
      <file>${PROJECT_ROOT}\DefectConstants.m</file>
      <file>${PROJECT_ROOT}\defectPointToRange.m</file>
      <file>${PROJECT_ROOT}\displayFinalDefects.m</file>
      <file>${PROJECT_ROOT}\EdgeTechDDProcessFolder.m</file>
      <file>${PROJECT_ROOT}\fillHoles.m</file>
      <file>${PROJECT_ROOT}\findBelowAvgDef.m</file>
      <file>${PROJECT_ROOT}\findBurr.m</file>
      <file>${PROJECT_ROOT}\findDefects.m</file>
      <file>${PROJECT_ROOT}\findInd.m</file>
      <file>${PROJECT_ROOT}\imageAnalysis.m</file>
      <file>${PROJECT_ROOT}\imageInfo.m</file>
      <file>${PROJECT_ROOT}\indImgInfo.m</file>
      <file>${PROJECT_ROOT}\ini2struct.m</file>
      <file>${PROJECT_ROOT}\KCrackMainFunction.m</file>
      <file>${PROJECT_ROOT}\logMsg.m</file>
      <file>${PROJECT_ROOT}\logMsgInitDir.m</file>
      <file>${PROJECT_ROOT}\logStatus.m</file>
      <file>${PROJECT_ROOT}\logStatusInit.m</file>
      <file>${PROJECT_ROOT}\ProgramConstants.m</file>
      <file>${PROJECT_ROOT}\UnevenEdge.m</file>
    </fileset.depfun>
    <fileset.package />
    <build-deliverables>
      <file location="${PROJECT_ROOT}\libEdgeTechDD\for_testing" name="readme.txt" optional="true">D:\Projects\DefectDetection\libEdgeTechDD\for_testing\readme.txt</file>
      <file location="${PROJECT_ROOT}\libEdgeTechDD\for_testing" name="libEdgeTechDD.lib" optional="false">D:\Projects\DefectDetection\libEdgeTechDD\for_testing\libEdgeTechDD.lib</file>
      <file location="${PROJECT_ROOT}\libEdgeTechDD\for_testing" name="libEdgeTechDD.dll" optional="false">D:\Projects\DefectDetection\libEdgeTechDD\for_testing\libEdgeTechDD.dll</file>
      <file location="${PROJECT_ROOT}\libEdgeTechDD\for_testing" name="libEdgeTechDD.h" optional="false">D:\Projects\DefectDetection\libEdgeTechDD\for_testing\libEdgeTechDD.h</file>
    </build-deliverables>
    <workflow />
    <matlab>
      <root>C:\Program Files\MATLAB\R2017a</root>
      <toolboxes />
    </matlab>
    <platform>
      <unix>false</unix>
      <mac>false</mac>
      <windows>true</windows>
      <win2k>false</win2k>
      <winxp>false</winxp>
      <vista>false</vista>
      <linux>false</linux>
      <solaris>false</solaris>
      <osver>6.1</osver>
      <os32>false</os32>
      <os64>true</os64>
      <arch>win64</arch>
      <matlab>true</matlab>
    </platform>
  </configuration>
</deployment-project>